<?xml version="1.0" encoding="utf-8"?>
<!-- Generator: Adobe Illustrator 17.0.0, SVG Export Plug-In . SVG Version: 6.00 Build 0)  -->
<!DOCTYPE svg PUBLIC "-//W3C//DTD SVG 1.1//EN" "http://www.w3.org/Graphics/SVG/1.1/DTD/svg11.dtd">
<svg version="1.1" id="Layer_1" xmlns="http://www.w3.org/2000/svg" xmlns:xlink="http://www.w3.org/1999/xlink" x="0px" y="0px"
	 width="42.52px" height="42.52px" viewBox="0 0 42.52 42.52" enable-background="new 0 0 42.52 42.52" xml:space="preserve">
<g>
	<polygon fill="#F29E23" points="0,0 0,6.42 0,36.101 0,42.52 42.52,42.52 42.52,0 	"/>
	<text transform="matrix(1 0 0 1 17.7289 34.3432)" fill="#FFFFFF" font-family="'NotoSans-Bold'" font-size="5">DB</text>
	<g>
		<path fill="#FFFFFF" d="M21.261,6.785c1.599,0.016,3.171,0.205,4.688,0.734c0.823,0.287,1.604,0.656,2.234,1.279
			c0.377,0.372,0.652,0.803,0.656,1.356c0.004,0.561-0.272,0.998-0.651,1.376c-0.629,0.625-1.411,0.993-2.233,1.281
			c-1.166,0.409-2.372,0.61-3.603,0.688c-1.572,0.099-3.13,0.004-4.665-0.361c-1.079-0.256-2.116-0.621-3.011-1.304
			c-0.417-0.318-0.763-0.698-0.925-1.21c-0.179-0.57-0.022-1.077,0.329-1.533c0.497-0.646,1.183-1.036,1.913-1.347
			c1.307-0.556,2.684-0.812,4.094-0.903C20.48,6.814,20.87,6.802,21.261,6.785"/>
		<path fill="#FFFFFF" d="M28.839,14.964c0,0.717,0.015,1.512-0.005,2.307c-0.013,0.521-0.297,0.929-0.657,1.283
			c-0.61,0.599-1.361,0.962-2.154,1.246c-1.22,0.437-2.486,0.646-3.777,0.72c-1.591,0.091-3.165-0.02-4.714-0.405
			c-0.872-0.217-1.714-0.518-2.478-1.001c-0.481-0.304-0.921-0.66-1.175-1.185c-0.099-0.203-0.184-0.436-0.19-0.657
			c-0.023-0.794-0.009-1.59-0.009-2.415c0.274,0.975,0.994,1.499,1.806,1.926c1.007,0.531,2.095,0.811,3.212,0.992
			c1.331,0.216,2.67,0.254,4.01,0.137c1.497-0.131,2.956-0.428,4.309-1.119c0.527-0.269,1.024-0.588,1.381-1.07
			C28.583,15.472,28.713,15.185,28.839,14.964"/>
		<path fill="#FFFFFF" d="M13.679,18.389c0.206,0.763,0.742,1.254,1.377,1.652c1.078,0.676,2.28,1.006,3.519,1.219
			c1.085,0.186,2.18,0.253,3.279,0.209c1.615-0.065,3.197-0.306,4.694-0.949c0.703-0.302,1.358-0.678,1.853-1.284
			c0.205-0.252,0.352-0.532,0.442-0.851v0.14c0,0.053,0,0.107,0,0.16c0,0.617-0.014,1.235,0.004,1.851
			c0.018,0.616-0.242,1.101-0.662,1.516c-0.621,0.615-1.389,0.986-2.201,1.267c-1.924,0.665-3.91,0.825-5.93,0.69
			c-1.2-0.08-2.376-0.286-3.512-0.688c-0.799-0.282-1.557-0.642-2.176-1.24c-0.445-0.43-0.711-0.931-0.693-1.574
			C13.694,19.801,13.679,19.095,13.679,18.389"/>
		<path fill="#FFFFFF" d="M13.679,11.39c0.218,0.755,0.744,1.239,1.369,1.633c0.962,0.606,2.03,0.936,3.135,1.151
			c1.624,0.317,3.26,0.372,4.906,0.189c1.196-0.132,2.363-0.38,3.471-0.861c0.707-0.307,1.378-0.679,1.855-1.306
			c0.182-0.239,0.303-0.525,0.425-0.743c0,0.731,0.016,1.526-0.006,2.32c-0.013,0.514-0.296,0.917-0.649,1.267
			c-0.617,0.611-1.379,0.982-2.184,1.261c-1.941,0.673-3.945,0.836-5.983,0.694c-1.194-0.083-2.365-0.289-3.494-0.692
			c-0.791-0.283-1.545-0.641-2.159-1.236c-0.445-0.431-0.71-0.933-0.691-1.576C13.694,12.791,13.679,12.09,13.679,11.39"/>
	</g>
</g>
</svg>
